Arrays are dynamically allocated with _mm_malloc

Will run kernel 0 with 24 threads
Kernel explicitly inlined
GFlops =    122.880, Secs =      0.598, GFlops per sec =    205.414

Will run kernel 1 with 24 threads
Kernel in a function in the same source file
GFlops =    122.880, Secs =      0.606, GFlops per sec =    202.759

Will run kernel 2 with 24 threads
Kernel in a function in the same source file with restrict
GFlops =    122.880, Secs =      0.609, GFlops per sec =    201.629

Will run kernel 3 with 24 threads
Kernel in a function in the same source file with restrict and align_value
GFlops =    122.880, Secs =      0.607, GFlops per sec =    202.371

Will run kernel 4 with 24 threads
Kernel in a function in a different source file
GFlops =    122.880, Secs =      0.568, GFlops per sec =    216.420

Will run kernel 5 with 24 threads
Kernel in a function in a different source file with restrict
GFlops =    122.880, Secs =      0.595, GFlops per sec =    206.491

Will run kernel 6 with 24 threads
Kernel in a function in a different source file with restrict and align_value
GFlops =    122.880, Secs =      0.569, GFlops per sec =    215.866
Application 1760837 resources: utime ~49s, stime ~0s, Rss ~7640, inblocks ~3390, outblocks ~8952

 + --------------------------------------------------------------------------
 +        Job name: dbgjob
 +          Job Id: 494283.edique02
 +          System: edison
 +     Queued Time: Mon Nov 11 17:42:04 2013
 +      Start Time: Mon Nov 11 17:42:20 2013
 + Completion Time: Mon Nov 11 17:42:30 2013
 +            User: csdaley
 +        MOM Host: nid02434
 +           Queue: debug
 +  Req. Resources: mppnodect=1,mppnppn=24,mppwidth=24,walltime=00:10:00
 +  Used Resources: cput=00:00:01,mem=0kb,vmem=0kb,walltime=00:00:12
 +     Acct String: mpccc
 +   PBS_O_WORKDIR: /global/u2/c/csdaley/edison/vectorization_study/inner_vs_outer/runs/0179939/dynamic
 +     Submit Args: batch_submission_script
 + --------------------------------------------------------------------------

