Arrays are statically allocated
Floating point size = 4
Inner loop size = 32
Outer loop size = 536870912
Maximum OpenMP threads = 48
Actual OpenMP threads = 24
Memory accessed per thread = 0.00 MiB, 0.25 KiB, 256 bytes
Total memory allocation = 0.01 MiB

Will run kernel 0 with 24 threads
Kernel explicitly inlined
GFlops =    824.634, Secs =      3.368, GFlops per sec =    244.815

Will run kernel 1 with 24 threads
Kernel in a function in the same source file
GFlops =    824.634, Secs =      3.251, GFlops per sec =    253.659

Will run kernel 2 with 24 threads
Kernel in a function in the same source file with restrict
GFlops =    824.634, Secs =      3.328, GFlops per sec =    247.774

Will run kernel 3 with 24 threads
Kernel in a function in the same source file with restrict and align_value
GFlops =    824.634, Secs =      3.204, GFlops per sec =    257.360

Will run kernel 4 with 24 threads
Kernel in a function in a different source file
GFlops =    824.634, Secs =      3.226, GFlops per sec =    255.607

Will run kernel 5 with 24 threads
Kernel in a function in a different source file with restrict
GFlops =    824.634, Secs =      3.245, GFlops per sec =    254.085

Will run kernel 6 with 24 threads
Kernel in a function in a different source file with restrict and align_value
GFlops =    824.634, Secs =      3.210, GFlops per sec =    256.869
Application 1833159 resources: utime ~260s, stime ~0s, Rss ~4248, inblocks ~3390, outblocks ~8952
Arrays are statically allocated
Floating point size = 4
Inner loop size = 128
Outer loop size = 134217728
Maximum OpenMP threads = 48
Actual OpenMP threads = 24
Memory accessed per thread = 0.00 MiB, 1.00 KiB, 1024 bytes
Total memory allocation = 0.05 MiB

Will run kernel 0 with 24 threads
Kernel explicitly inlined
GFlops =    824.634, Secs =      4.008, GFlops per sec =    205.768

Will run kernel 1 with 24 threads
Kernel in a function in the same source file
GFlops =    824.634, Secs =      4.066, GFlops per sec =    202.799

Will run kernel 2 with 24 threads
Kernel in a function in the same source file with restrict
GFlops =    824.634, Secs =      4.059, GFlops per sec =    203.140

Will run kernel 3 with 24 threads
Kernel in a function in the same source file with restrict and align_value
GFlops =    824.634, Secs =      3.989, GFlops per sec =    206.748

Will run kernel 4 with 24 threads
Kernel in a function in a different source file
GFlops =    824.634, Secs =      3.994, GFlops per sec =    206.492

Will run kernel 5 with 24 threads
Kernel in a function in a different source file with restrict
GFlops =    824.634, Secs =      4.010, GFlops per sec =    205.645

Will run kernel 6 with 24 threads
Kernel in a function in a different source file with restrict and align_value
GFlops =    824.634, Secs =      4.081, GFlops per sec =    202.081
Application 1833161 resources: utime ~324s, stime ~0s, Rss ~4248, inblocks ~3390, outblocks ~8952
Arrays are statically allocated
Floating point size = 4
Inner loop size = 512
Outer loop size = 33554432
Maximum OpenMP threads = 48
Actual OpenMP threads = 24
Memory accessed per thread = 0.00 MiB, 4.00 KiB, 4096 bytes
Total memory allocation = 0.19 MiB

Will run kernel 0 with 24 threads
Kernel explicitly inlined
GFlops =    824.634, Secs =      3.395, GFlops per sec =    242.914

Will run kernel 1 with 24 threads
Kernel in a function in the same source file
GFlops =    824.634, Secs =      3.754, GFlops per sec =    219.664

Will run kernel 2 with 24 threads
Kernel in a function in the same source file with restrict
GFlops =    824.634, Secs =      3.736, GFlops per sec =    220.747

Will run kernel 3 with 24 threads
Kernel in a function in the same source file with restrict and align_value
GFlops =    824.634, Secs =      3.667, GFlops per sec =    224.906

Will run kernel 4 with 24 threads
Kernel in a function in a different source file
GFlops =    824.634, Secs =      3.788, GFlops per sec =    217.709

Will run kernel 5 with 24 threads
Kernel in a function in a different source file with restrict
GFlops =    824.634, Secs =      3.669, GFlops per sec =    224.785

Will run kernel 6 with 24 threads
Kernel in a function in a different source file with restrict and align_value
GFlops =    824.634, Secs =      3.645, GFlops per sec =    226.263
Application 1833164 resources: utime ~293s, stime ~0s, Rss ~4248, inblocks ~3390, outblocks ~8952
Arrays are statically allocated
Floating point size = 4
Inner loop size = 2097152
Outer loop size = 1024
Maximum OpenMP threads = 48
Actual OpenMP threads = 24
Memory accessed per thread = 16.00 MiB, 16384.00 KiB, 16777216 bytes
Total memory allocation = 768.00 MiB

Will run kernel 0 with 24 threads
Kernel explicitly inlined
GFlops =    103.079, Secs =     12.536, GFlops per sec =      8.222

Will run kernel 1 with 24 threads
Kernel in a function in the same source file
GFlops =    103.079, Secs =     12.529, GFlops per sec =      8.227

Will run kernel 2 with 24 threads
Kernel in a function in the same source file with restrict
GFlops =    103.079, Secs =     12.525, GFlops per sec =      8.230

Will run kernel 3 with 24 threads
Kernel in a function in the same source file with restrict and align_value
GFlops =    103.079, Secs =     12.521, GFlops per sec =      8.233

Will run kernel 4 with 24 threads
Kernel in a function in a different source file
GFlops =    103.079, Secs =     12.518, GFlops per sec =      8.234

Will run kernel 5 with 24 threads
Kernel in a function in a different source file with restrict
GFlops =    103.079, Secs =     12.525, GFlops per sec =      8.230

Will run kernel 6 with 24 threads
Kernel in a function in a different source file with restrict and align_value
GFlops =    103.079, Secs =     12.538, GFlops per sec =      8.221
Application 1833169 resources: utime ~1030s, stime ~1s, Rss ~788264, inblocks ~3389, outblocks ~8944
Arrays are dynamically allocated with _mm_malloc
Floating point size = 4
Inner loop size = 32
Outer loop size = 536870912
Maximum OpenMP threads = 48
Actual OpenMP threads = 24
Memory accessed per thread = 0.00 MiB, 0.25 KiB, 256 bytes
Total memory allocation = 0.01 MiB

Will run kernel 0 with 24 threads
Kernel explicitly inlined
GFlops =    824.634, Secs =      4.758, GFlops per sec =    173.321

Will run kernel 1 with 24 threads
Kernel in a function in the same source file
GFlops =    824.634, Secs =      3.194, GFlops per sec =    258.177

Will run kernel 2 with 24 threads
Kernel in a function in the same source file with restrict
GFlops =    824.634, Secs =      3.202, GFlops per sec =    257.535

Will run kernel 3 with 24 threads
Kernel in a function in the same source file with restrict and align_value
GFlops =    824.634, Secs =      3.206, GFlops per sec =    257.207

Will run kernel 4 with 24 threads
Kernel in a function in a different source file
GFlops =    824.634, Secs =      3.231, GFlops per sec =    255.257

Will run kernel 5 with 24 threads
Kernel in a function in a different source file with restrict
GFlops =    824.634, Secs =      3.198, GFlops per sec =    257.845

Will run kernel 6 with 24 threads
Kernel in a function in a different source file with restrict and align_value
GFlops =    824.634, Secs =      3.254, GFlops per sec =    253.458
Application 1833176 resources: utime ~277s, stime ~0s, Rss ~4248, inblocks ~3391, outblocks ~8952
Arrays are dynamically allocated with _mm_malloc
Floating point size = 4
Inner loop size = 128
Outer loop size = 134217728
Maximum OpenMP threads = 48
Actual OpenMP threads = 24
Memory accessed per thread = 0.00 MiB, 1.00 KiB, 1024 bytes
Total memory allocation = 0.05 MiB

Will run kernel 0 with 24 threads
Kernel explicitly inlined
GFlops =    824.634, Secs =      4.472, GFlops per sec =    184.406

Will run kernel 1 with 24 threads
Kernel in a function in the same source file
GFlops =    824.634, Secs =      4.508, GFlops per sec =    182.922

Will run kernel 2 with 24 threads
Kernel in a function in the same source file with restrict
GFlops =    824.634, Secs =      4.527, GFlops per sec =    182.166

Will run kernel 3 with 24 threads
Kernel in a function in the same source file with restrict and align_value
GFlops =    824.634, Secs =      4.392, GFlops per sec =    187.738

Will run kernel 4 with 24 threads
Kernel in a function in a different source file
GFlops =    824.634, Secs =      4.380, GFlops per sec =    188.254

Will run kernel 5 with 24 threads
Kernel in a function in a different source file with restrict
GFlops =    824.634, Secs =      4.313, GFlops per sec =    191.201

Will run kernel 6 with 24 threads
Kernel in a function in a different source file with restrict and align_value
GFlops =    824.634, Secs =      4.324, GFlops per sec =    190.729
Application 1833179 resources: utime ~349s, stime ~0s, Rss ~4248, inblocks ~3391, outblocks ~8952
Arrays are dynamically allocated with _mm_malloc
Floating point size = 4
Inner loop size = 512
Outer loop size = 33554432
Maximum OpenMP threads = 48
Actual OpenMP threads = 24
Memory accessed per thread = 0.00 MiB, 4.00 KiB, 4096 bytes
Total memory allocation = 0.19 MiB

Will run kernel 0 with 24 threads
Kernel explicitly inlined
GFlops =    824.634, Secs =      3.761, GFlops per sec =    219.238

Will run kernel 1 with 24 threads
Kernel in a function in the same source file
GFlops =    824.634, Secs =      3.780, GFlops per sec =    218.178

Will run kernel 2 with 24 threads
Kernel in a function in the same source file with restrict
GFlops =    824.634, Secs =      3.878, GFlops per sec =    212.665

Will run kernel 3 with 24 threads
Kernel in a function in the same source file with restrict and align_value
GFlops =    824.634, Secs =      3.731, GFlops per sec =    221.030

Will run kernel 4 with 24 threads
Kernel in a function in a different source file
GFlops =    824.634, Secs =      3.845, GFlops per sec =    214.459

Will run kernel 5 with 24 threads
Kernel in a function in a different source file with restrict
GFlops =    824.634, Secs =      3.650, GFlops per sec =    225.902

Will run kernel 6 with 24 threads
Kernel in a function in a different source file with restrict and align_value
GFlops =    824.634, Secs =      3.656, GFlops per sec =    225.550
Application 1833182 resources: utime ~296s, stime ~0s, Rss ~4248, inblocks ~3390, outblocks ~8952
Arrays are dynamically allocated with _mm_malloc
Floating point size = 4
Inner loop size = 2097152
Outer loop size = 1024
Maximum OpenMP threads = 48
Actual OpenMP threads = 24
Memory accessed per thread = 16.00 MiB, 16384.00 KiB, 16777216 bytes
Total memory allocation = 768.00 MiB

Will run kernel 0 with 24 threads
Kernel explicitly inlined
GFlops =    103.079, Secs =     12.551, GFlops per sec =      8.213

Will run kernel 1 with 24 threads
Kernel in a function in the same source file
GFlops =    103.079, Secs =     12.537, GFlops per sec =      8.222

Will run kernel 2 with 24 threads
Kernel in a function in the same source file with restrict
GFlops =    103.079, Secs =     12.531, GFlops per sec =      8.226

Will run kernel 3 with 24 threads
Kernel in a function in the same source file with restrict and align_value
GFlops =    103.079, Secs =     12.541, GFlops per sec =      8.219

Will run kernel 4 with 24 threads
Kernel in a function in a different source file
GFlops =    103.079, Secs =     12.539, GFlops per sec =      8.221

Will run kernel 5 with 24 threads
Kernel in a function in a different source file with restrict
GFlops =    103.079, Secs =     12.541, GFlops per sec =      8.219

Will run kernel 6 with 24 threads
Kernel in a function in a different source file with restrict and align_value
GFlops =    103.079, Secs =     12.545, GFlops per sec =      8.217
Application 1833183 resources: utime ~1022s, stime ~1s, Rss ~787028, inblocks ~3390, outblocks ~8952
Arrays are statically allocated
Floating point size = 8
Inner loop size = 32
Outer loop size = 536870912
Maximum OpenMP threads = 48
Actual OpenMP threads = 24
Memory accessed per thread = 0.00 MiB, 0.50 KiB, 512 bytes
Total memory allocation = 0.02 MiB

Will run kernel 0 with 24 threads
Kernel explicitly inlined
GFlops =    824.634, Secs =      4.952, GFlops per sec =    166.540

Will run kernel 1 with 24 threads
Kernel in a function in the same source file
GFlops =    824.634, Secs =      4.825, GFlops per sec =    170.909

Will run kernel 2 with 24 threads
Kernel in a function in the same source file with restrict
GFlops =    824.634, Secs =      4.765, GFlops per sec =    173.044

Will run kernel 3 with 24 threads
Kernel in a function in the same source file with restrict and align_value
GFlops =    824.634, Secs =      4.654, GFlops per sec =    177.172

Will run kernel 4 with 24 threads
Kernel in a function in a different source file
GFlops =    824.634, Secs =      4.667, GFlops per sec =    176.693

Will run kernel 5 with 24 threads
Kernel in a function in a different source file with restrict
GFlops =    824.634, Secs =      4.679, GFlops per sec =    176.242

Will run kernel 6 with 24 threads
Kernel in a function in a different source file with restrict and align_value
GFlops =    824.634, Secs =      4.742, GFlops per sec =    173.910
Application 1833189 resources: utime ~377s, stime ~0s, Rss ~4248, inblocks ~3392, outblocks ~8960
Arrays are statically allocated
Floating point size = 8
Inner loop size = 128
Outer loop size = 134217728
Maximum OpenMP threads = 48
Actual OpenMP threads = 24
Memory accessed per thread = 0.00 MiB, 2.00 KiB, 2048 bytes
Total memory allocation = 0.09 MiB

Will run kernel 0 with 24 threads
Kernel explicitly inlined
GFlops =    824.634, Secs =     12.075, GFlops per sec =     68.293

Will run kernel 1 with 24 threads
Kernel in a function in the same source file
GFlops =    824.634, Secs =     11.486, GFlops per sec =     71.797

Will run kernel 2 with 24 threads
Kernel in a function in the same source file with restrict
GFlops =    824.634, Secs =     10.955, GFlops per sec =     75.277

Will run kernel 3 with 24 threads
Kernel in a function in the same source file with restrict and align_value
GFlops =    824.634, Secs =     10.982, GFlops per sec =     75.086

Will run kernel 4 with 24 threads
Kernel in a function in a different source file
GFlops =    824.634, Secs =     10.885, GFlops per sec =     75.762

Will run kernel 5 with 24 threads
Kernel in a function in a different source file with restrict
GFlops =    824.634, Secs =     10.528, GFlops per sec =     78.327

Will run kernel 6 with 24 threads
Kernel in a function in a different source file with restrict and align_value
GFlops =    824.634, Secs =     10.291, GFlops per sec =     80.135
Application 1833196 resources: utime ~841s, stime ~0s, Rss ~4248, inblocks ~3390, outblocks ~8952
Arrays are statically allocated
Floating point size = 8
Inner loop size = 512
Outer loop size = 33554432
Maximum OpenMP threads = 48
Actual OpenMP threads = 24
Memory accessed per thread = 0.01 MiB, 8.00 KiB, 8192 bytes
Total memory allocation = 0.38 MiB

Will run kernel 0 with 24 threads
Kernel explicitly inlined
GFlops =    824.634, Secs =      7.481, GFlops per sec =    110.237

Will run kernel 1 with 24 threads
Kernel in a function in the same source file
GFlops =    824.634, Secs =      7.060, GFlops per sec =    116.808

Will run kernel 2 with 24 threads
Kernel in a function in the same source file with restrict
GFlops =    824.634, Secs =      7.066, GFlops per sec =    116.703

Will run kernel 3 with 24 threads
Kernel in a function in the same source file with restrict and align_value
GFlops =    824.634, Secs =      7.149, GFlops per sec =    115.343

Will run kernel 4 with 24 threads
Kernel in a function in a different source file
GFlops =    824.634, Secs =      7.591, GFlops per sec =    108.628

Will run kernel 5 with 24 threads
Kernel in a function in a different source file with restrict
GFlops =    824.634, Secs =      7.149, GFlops per sec =    115.343

Will run kernel 6 with 24 threads
Kernel in a function in a different source file with restrict and align_value
GFlops =    824.634, Secs =      7.494, GFlops per sec =    110.039
Application 1833204 resources: utime ~575s, stime ~0s, Rss ~4248, inblocks ~3390, outblocks ~8952
Arrays are statically allocated
Floating point size = 8
Inner loop size = 2097152
Outer loop size = 1024
Maximum OpenMP threads = 48
Actual OpenMP threads = 24
Memory accessed per thread = 32.00 MiB, 32768.00 KiB, 33554432 bytes
Total memory allocation = 1536.00 MiB

Will run kernel 0 with 24 threads
Kernel explicitly inlined
GFlops =    103.079, Secs =     25.105, GFlops per sec =      4.106

Will run kernel 1 with 24 threads
Kernel in a function in the same source file
GFlops =    103.079, Secs =     25.137, GFlops per sec =      4.101

Will run kernel 2 with 24 threads
Kernel in a function in the same source file with restrict
GFlops =    103.079, Secs =     25.041, GFlops per sec =      4.116

Will run kernel 3 with 24 threads
Kernel in a function in the same source file with restrict and align_value
GFlops =    103.079, Secs =     25.170, GFlops per sec =      4.095

Will run kernel 4 with 24 threads
Kernel in a function in a different source file
GFlops =    103.079, Secs =     25.075, GFlops per sec =      4.111

Will run kernel 5 with 24 threads
Kernel in a function in a different source file with restrict
GFlops =    103.079, Secs =     25.056, GFlops per sec =      4.114

Will run kernel 6 with 24 threads
Kernel in a function in a different source file with restrict and align_value
GFlops =    103.079, Secs =     25.067, GFlops per sec =      4.112
Application 1833211 resources: utime ~2056s, stime ~2s, Rss ~1574700, inblocks ~3390, outblocks ~8944
Arrays are dynamically allocated with _mm_malloc
Floating point size = 8
Inner loop size = 32
Outer loop size = 536870912
Maximum OpenMP threads = 48
Actual OpenMP threads = 24
Memory accessed per thread = 0.00 MiB, 0.50 KiB, 512 bytes
Total memory allocation = 0.02 MiB

Will run kernel 0 with 24 threads
Kernel explicitly inlined
GFlops =    824.634, Secs =      5.293, GFlops per sec =    155.806

Will run kernel 1 with 24 threads
Kernel in a function in the same source file
GFlops =    824.634, Secs =      4.672, GFlops per sec =    176.490

Will run kernel 2 with 24 threads
Kernel in a function in the same source file with restrict
GFlops =    824.634, Secs =      4.751, GFlops per sec =    173.561

Will run kernel 3 with 24 threads
Kernel in a function in the same source file with restrict and align_value
GFlops =    824.634, Secs =      4.752, GFlops per sec =    173.519

Will run kernel 4 with 24 threads
Kernel in a function in a different source file
GFlops =    824.634, Secs =      4.665, GFlops per sec =    176.752

Will run kernel 5 with 24 threads
Kernel in a function in a different source file with restrict
GFlops =    824.634, Secs =      4.746, GFlops per sec =    173.748

Will run kernel 6 with 24 threads
Kernel in a function in a different source file with restrict and align_value
GFlops =    824.634, Secs =      4.675, GFlops per sec =    176.406
Application 1833220 resources: utime ~385s, stime ~0s, Rss ~4248, inblocks ~3393, outblocks ~8960
Arrays are dynamically allocated with _mm_malloc
Floating point size = 8
Inner loop size = 128
Outer loop size = 134217728
Maximum OpenMP threads = 48
Actual OpenMP threads = 24
Memory accessed per thread = 0.00 MiB, 2.00 KiB, 2048 bytes
Total memory allocation = 0.09 MiB

Will run kernel 0 with 24 threads
Kernel explicitly inlined
GFlops =    824.634, Secs =     11.347, GFlops per sec =     72.677

Will run kernel 1 with 24 threads
Kernel in a function in the same source file
GFlops =    824.634, Secs =     10.084, GFlops per sec =     81.772

Will run kernel 2 with 24 threads
Kernel in a function in the same source file with restrict
GFlops =    824.634, Secs =     10.571, GFlops per sec =     78.012

Will run kernel 3 with 24 threads
Kernel in a function in the same source file with restrict and align_value
GFlops =    824.634, Secs =     10.957, GFlops per sec =     75.259

Will run kernel 4 with 24 threads
Kernel in a function in a different source file
GFlops =    824.634, Secs =     10.488, GFlops per sec =     78.624

Will run kernel 5 with 24 threads
Kernel in a function in a different source file with restrict
GFlops =    824.634, Secs =     11.037, GFlops per sec =     74.714

Will run kernel 6 with 24 threads
Kernel in a function in a different source file with restrict and align_value
GFlops =    824.634, Secs =     10.758, GFlops per sec =     76.651
Application 1833227 resources: utime ~816s, stime ~0s, Rss ~4248, inblocks ~3391, outblocks ~8952
Arrays are dynamically allocated with _mm_malloc
Floating point size = 8
Inner loop size = 512
Outer loop size = 33554432
Maximum OpenMP threads = 48
Actual OpenMP threads = 24
Memory accessed per thread = 0.01 MiB, 8.00 KiB, 8192 bytes
Total memory allocation = 0.38 MiB

Will run kernel 0 with 24 threads
Kernel explicitly inlined
GFlops =    824.634, Secs =      7.405, GFlops per sec =    111.355

Will run kernel 1 with 24 threads
Kernel in a function in the same source file
GFlops =    824.634, Secs =      7.508, GFlops per sec =    109.831

Will run kernel 2 with 24 threads
Kernel in a function in the same source file with restrict
GFlops =    824.634, Secs =      7.208, GFlops per sec =    114.401

Will run kernel 3 with 24 threads
Kernel in a function in the same source file with restrict and align_value
GFlops =    824.634, Secs =      7.060, GFlops per sec =    116.804

Will run kernel 4 with 24 threads
Kernel in a function in a different source file
GFlops =    824.634, Secs =      7.658, GFlops per sec =    107.689

Will run kernel 5 with 24 threads
Kernel in a function in a different source file with restrict
GFlops =    824.634, Secs =      7.303, GFlops per sec =    112.917

Will run kernel 6 with 24 threads
Kernel in a function in a different source file with restrict and align_value
GFlops =    824.634, Secs =      8.674, GFlops per sec =     95.065
Application 1833234 resources: utime ~590s, stime ~0s, Rss ~4248, inblocks ~3391, outblocks ~8952
Arrays are dynamically allocated with _mm_malloc
Floating point size = 8
Inner loop size = 2097152
Outer loop size = 1024
Maximum OpenMP threads = 48
Actual OpenMP threads = 24
Memory accessed per thread = 32.00 MiB, 32768.00 KiB, 33554432 bytes
Total memory allocation = 1536.00 MiB

Will run kernel 0 with 24 threads
Kernel explicitly inlined
GFlops =    103.079, Secs =     25.242, GFlops per sec =      4.084

Will run kernel 1 with 24 threads
Kernel in a function in the same source file
GFlops =    103.079, Secs =     25.142, GFlops per sec =      4.100

Will run kernel 2 with 24 threads
Kernel in a function in the same source file with restrict
GFlops =    103.079, Secs =     25.247, GFlops per sec =      4.083

Will run kernel 3 with 24 threads
Kernel in a function in the same source file with restrict and align_value
GFlops =    103.079, Secs =     25.210, GFlops per sec =      4.089

Will run kernel 4 with 24 threads
Kernel in a function in a different source file
GFlops =    103.079, Secs =     25.110, GFlops per sec =      4.105

Will run kernel 5 with 24 threads
Kernel in a function in a different source file with restrict
GFlops =    103.079, Secs =     25.207, GFlops per sec =      4.089

Will run kernel 6 with 24 threads
Kernel in a function in a different source file with restrict and align_value
GFlops =    103.079, Secs =     25.147, GFlops per sec =      4.099
Application 1833239 resources: utime ~2059s, stime ~2s, Rss ~1572668, inblocks ~3389, outblocks ~8952

 + --------------------------------------------------------------------------
 +        Job name: dbgjob
 +          Job Id: 513849.edique02
 +          System: edison
 +     Queued Time: Sun Nov 17 00:16:42 2013
 +      Start Time: Sun Nov 17 00:16:59 2013
 + Completion Time: Sun Nov 17 00:34:44 2013
 +            User: csdaley
 +        MOM Host: nid02817
 +           Queue: debug
 +  Req. Resources: mppnodect=1,mppnppn=24,mppwidth=24,walltime=00:30:00
 +  Used Resources: cput=00:00:05,mem=12292kb,vmem=159316kb,walltime=00:17:46
 +     Acct String: mpccc
 +   PBS_O_WORKDIR: /global/u2/c/csdaley/edison/vectorization_study/inner_vs_outer
 +     Submit Args: batch_submission_script
 + --------------------------------------------------------------------------

